X,Y,Z,Yaw,Pitch,Roll
0.0,0.0,-0.25,-125.00000234007700,0.0,0.0
0.0,0.0,-0.24969536066055300,-125.00002966083400,0.006091179293707570,0.0030442712585938900
0.0,0.0,-0.24877822399139400,-125.00024822688700,0.024428308303736100,0.012219659491112400
0.0,0.0,-0.2472444772720340,-125.00084928353400,0.055109888246350300,0.02755397695771650
0.0,0.0,-0.24509066343307500,-125.00205139682800,0.09817928023398550,0.04909208471106580
0.0,0.0,-0.24231469631195100,-125.00407313282200,0.15370434926635900,0.07685262153032230
0.0,0.0,-0.23891544342041000,-125.00717403870600,0.22169371979131900,0.11084531243092500
0.0,0.0,-0.23489326238632200,-125.01160000128800,0.30213854057739200,0.1510664555037060
0.0,0.0,-0.23024982213974,-125.01762422813600,0.39500275302823700,0.19750181674115500
0.0,0.0,-0.2249884009361270,-125.02556090795100,0.5002275268035430,0.25011597787716600
0.0,0.0,-0.2191140055656430,-125.03571056905800,0.6177225753402180,0.3088581393797880
0.0,0.0,-0.2126334309577940,-125.04837373977900,0.747331071091616,0.3736646017308820
0.0,0.0,-0.20555555820465100,-125.06390558995200,0.8888941054378290,0.4444445981196820
0.0,0.0,-0.19789111614227300,-125.08268861016900,1.0421782246474600,0.5210887921586130
0.0,0.0,-0.1896534562110900,-125.10505064951200,1.2069346604243300,0.6034635415916110
0.0,0.0,-0.18085777759552000,-125.13141517970800,1.3828361506576700,0.6914235714966820
0.0,0.0,-0.17152202129364000,-125.1621373705950,1.5695523916680700,0.7847808915890900
0.0,0.0,-0.16166657209396400,-125.19768167503600,1.7666681292983500,0.8833342780925860
0.0,0.0,-0.15131425857543900,-125.23843058362400,1.973705890636830,0.9868578545168830
0.0,0.0,-0.14049053192138700,-125.28479390771000,2.190186815389680,1.095094581633610
0.0,0.0,-0.12922346591949500,-125.33724976053600,2.415526922382860,1.207765595625550
0.0,0.0,-0.11754357814788800,-125.39618063269400,2.6491324120454000,1.3245631110932300
0.0,0.0,-0.10548394918441800,-125.46205097705000,2.89032218645101,1.4451613066689200
0.0,0.0,-0.09307992458343510,-125.5352706049530,3.1384014872950400,1.569199142821940
0.0,0.0,-0.08036923408508300,-125.6162629881310,3.39262006098586,1.69631003049293
0.0,0.0,-0.06739145517349240,-125.70545159831300,3.652167036002930,1.8260856524355800
0.0,0.0,-0.05418819189071660,-125.80323258647100,3.9162336752598500,1.9581185451772200
0.0,0.0,-0.04080253839492800,-125.90997478281900,4.18394422043897,2.0919742446536000
0.0,0.0,-0.0272788405418396,-126.0260470175750,4.4544209922319400,2.2272107095593800
0.0,0.0,-0.01366269588470460,-126.15176347943800,4.7267449033085800,2.3633745860884100
0.0,0.0,0.0,-126.28750665900300,5.0000041234146900,2.500000994490290
0.0,0.0,0.013662576675415000,-126.4334814619440,5.273262489747150,2.6366256953448800
0.0,0.0,0.027278900146484400,-126.58998841658600,5.545579570634620,2.7727878643266100
0.0,0.0,0.040802597999572800,-126.75720510784600,5.816045243370200,2.9080273174401500
0.0,0.0,0.05418825149536130,-126.93539108291400,6.08376048430437,3.0418825900297100
0.0,0.0,0.06739151477813720,-127.12461464368000,6.347834807524100,3.173914842441110
0.0,0.0,0.08036923408508300,-127.32505337506300,6.607379007776830,3.3036907845488800
0.0,0.0,0.09308004379272460,-127.53676191857600,6.861603771326580,3.4308016722198800
0.0,0.0,0.1054840087890630,-127.75979491573400,7.109679230189200,3.554837053773660
0.0,0.0,0.11754345893859900,-127.99416602691400,7.350875834783980,3.675434929184230
0.0,0.0,0.12922334671020500,-128.23986159173800,7.5844725732666500,3.7922358597465
0.0,0.0,0.14049053192138700,-128.49682696869200,7.809815028137350,3.9049032452004500
0.0,0.0,0.15131425857543900,-128.7649801955070,8.026280798407980,4.013145094959050
0.0,0.0,0.16166651248931900,-129.04422564953300,8.233331152907750,4.116665576453870
0.0,0.0,0.17152202129364000,-129.3344267269890,8.430440167070560,4.21522264485622
0.0,0.0,0.18085777759552000,-129.6354195033330,8.617151925769320,4.3085785242056000
0.0,0.0,0.18965351581573500,-129.94705371440400,8.793068570484880,4.396532577695150
0.0,0.0,0.1978912353515630,-130.2691244545270,8.957824686096630,4.478911062387850
0.0,0.0,0.20555543899536100,-130.6014131576480,9.11110779145006,4.555557310819620
0.0,0.0,0.21263337135314900,-130.94374223884900,9.25267370728233,4.626332584772930
0.0,0.0,0.21911406517028800,-131.29581116980600,9.382279961877910,4.691140834712600
0.0,0.0,0.22498846054077100,-131.65745602598000,9.499766045791300,4.749883022895650
0.0,0.0,0.23024988174438500,-132.02837627904700,9.605001331654620,4.802498531393200
0.0,0.0,0.23489320278167700,-132.40836702333100,9.6978679987047,4.848932291805060
0.0,0.0,0.23891544342041000,-132.7971140701320,9.778305429012650,4.889157410261380
0.0,0.0,0.24231469631195100,-133.1944125137730,9.846293132010950,4.923146566005480
0.0,0.0,0.24509048461914100,-133.59998914668800,9.901815739773990,4.950906589226520
0.0,0.0,0.24724459648132300,-134.01358442168900,9.944899719284780,4.972442602566400
0.0,0.0,0.2487783432006840,-134.4349661123440,9.975574098847310,4.987781073008130
0.0,0.0,0.2496953010559080,-134.86384735070800,9.993908887900560,4.996954017063460
0.0,0.0,0.25,-135.29999591034800,10.000001416640200,5.000001562093750
0.00015231966972351100,0.0,0.2498476505279540,-135.75410786750500,10.000003977961200,4.995683601877840
0.0006108880043029790,0.0,0.24938905239105200,-136.23727544939200,10.000001416640200,4.98264861273369
0.0013777613639831500,0.0,0.24862217903137200,-136.74981284471000,10.000003124187500,4.960788165408240
0.0024546682834625200,0.0,0.2475452423095700,-137.29204790253900,10.00000227041390,4.929981024043720
0.003842651844024660,0.0,0.24615728855133100,-137.86425383044600,10.000003124187500,4.890143945709620
0.005542278289794920,0.0,0.24445772171020500,-138.46660821334900,10.000000562866600,4.841184295965320
0.007553368806838990,0.0,0.2424466609954830,-139.09932961730300,10.000001416640200,4.783034626692770
0.009875088930130010,0.0,0.24012494087219200,-139.7625000045760,10.000000562866600,4.715647126567780
0.012505799531936600,0.0,0.23749423027038600,-140.4561740166820,10.000003124187500,4.638974411152980
0.015442997217178300,0.0,0.23455703258514400,-141.1803379932440,10.000001416640200,4.553004954504150
0.018683284521102900,0.0,0.2313166856765750,-141.93490997199000,10.000003124187500,4.457744733036800
0.02222222089767460,0.0,0.22777771949768100,-142.71967138686800,10.000003977961200,4.353217225526220
0.026054441928863500,0.0,0.22394561767578100,-143.5343900114450,10.000007393055700,4.239472804617530
0.030173271894455000,0.0,0.21982669830322300,-144.3787106758860,10.000003124187500,4.1166019703172300
0.03457111120224000,0.0,0.21542882919311500,-145.25215526694700,10.000008246829400,3.9847037603682900
0.03923898935317990,0.0,0.2107609510421750,-146.1541773694950,10.000000562866600,3.84392715827198
0.04416671395301820,0.0,0.2058333158493040,-147.08408030423600,10.000004831734800,3.69442925837921
0.04934287071228030,0.0,0.20065712928772000,-148.04109908998100,10.000001416640200,3.5364277729697700
0.05475473403930660,0.0,0.19524526596069300,-149.0243048210050,10.000001416640200,3.3701555688056900
0.060388267040252700,0.0,0.1896117925643920,-150.03270028968700,10.00000227041390,3.1958858534537500
0.06622821092605590,0.0,0.18377184867858900,-151.06511070349100,10.000003124187500,3.013933029059200
0.07225802540779110,0.0,0.17774200439453100,-152.1203339491230,10.000006539282100,2.8246388185239400
0.07846003770828250,0.0,0.1715400218963620,-153.19696300761400,10.000008246829400,2.628382083903490
0.0848153829574585,0.0,0.1651846170425420,-154.29349523734600,10.000001416640200,2.4255813877279400
0.09130427241325380,0.0,0.15869569778442400,-155.4083870155670,10.00000227041390,2.2166702335661700
0.09790590405464170,0.0,0.15209412574768100,-156.53994445536300,10.000003124187500,2.002128442207370
0.10459873080253600,0.0,0.1454012393951420,-157.6863643867930,10.000003124187500,1.7824607005981800
0.1113605797290800,0.0,0.1386394500732420,-158.84584363991600,10.00000227041390,1.5581869568891700
0.11816868185997000,0.0,0.13183140754699700,-160.01645610138600,10.000003124187500,1.3298575749170500
0.125,0.0,0.125,-161.1962483371010,10.000007393055700,1.0980278277170100
0.1318313479423520,0.0,0.11816871166229200,-162.38323959220100,10.000003977961200,0.8632892203433320
0.1386394202709200,0.0,0.11136054992675800,-163.57538080993500,10.000004831734800,0.6262192773068610
0.14540129899978600,0.0,0.10459864139556900,-164.77067757506600,10.000001416640200,0.387395256314165
0.15209409594535800,0.0,0.09790587425231930,-165.96709449122,9.99999970909292,0.1474257912533170
0.15869572758674600,0.0,0.09130418300628660,-167.16266446391700,10.000008246829400,-0.09311736967717220
0.1651846170425420,0.0,0.0848153829574585,-168.35543405905500,10.000000562866600,-0.33365420734659400
0.17153996229171800,0.0,0.0784599781036377,-169.5434635029090,10.000001416640200,-0.5736144943407450
0.17774194478988600,0.0,0.07225799560546880,-170.72496328591600,10.000006539282100,-0.8124622609129770
0.1837717890739440,0.0,0.06622827053070070,-171.8981302381360,10.000006539282100,-1.0496557876847400
0.18961170315742500,0.0,0.06038832664489750,-173.06128413303200,9.99999970909292,-1.284699672497810
0.19524526596069300,0.0,0.05475473403930660,-174.21285402709600,10.000001416640200,-1.5171065706827200
0.20065712928772000,0.0,0.04934287071228030,-175.35130995795400,10.000001416640200,-1.7464295317356600
0.2058332860469820,0.0,0.04416680335998540,-176.4752722273930,10.00000227041390,-1.972234198314110
0.21076101064682000,0.0,0.039238929748535200,-177.5834430994710,10.000004831734800,-2.1941280479841900
0.21542888879776,0.0,0.034571170806884800,-178.6746204608940,9.999998855319280,-2.411734459846210
0.21982672810554500,0.0,0.030173301696777300,-179.7477797832860,9.99999970909292,-2.6247300671316500
0.22394558787345900,0.0,0.02605438232421880,179.1981271400190,10.000001416640200,-2.8328034559030400
0.22777774930000300,0.0,0.022222280502319300,178.1639408770300,10.000005685508400,-3.0356720270834700
0.2313167154788970,0.0,0.018683314323425300,177.15042276647000,10.000006539282100,-3.2330920282969300
0.23455703258514400,0.0,0.015442967414856000,176.15828314801300,10.000003977961200,-3.4248444666031600
0.23749420046806300,0.0,0.012505769729614300,175.18806843679100,10.00000227041390,-3.6107368160449300
0.24012491106987,0.0,0.009875059127807620,174.24031138756000,10.000003124187500,-3.7906017369875700
0.24244660139083900,0.0,0.0075533390045166000,173.31536717015700,10.000003977961200,-3.9642921669205300
0.2444576919078830,0.0,0.005542278289794920,172.4136182751750,10.000000562866600,-4.131702664798480
0.24615734815597500,0.0,0.003842592239379880,171.5353105894250,10.000001416640200,-4.29272693580247
0.24754533171653700,0.0,0.0024546384811401400,170.68063535820200,10.000004831734800,-4.447283444549280
0.24862226843833900,0.0,0.001377701759338380,169.84971552491400,10.000003124187500,-4.595324379714720
0.2493891716003420,0.0,0.0006108283996582030,169.04263305182800,10.00000227041390,-4.73680961393742
0.2498476803302770,0.0,0.00015234947204589800,168.25940159932500,10.000004831734800,-4.8717024349505900
0.25,0.0,0.0,167.5000075070240,10.000006539282100,-5.000000708320110
0.24969539046287500,0.0,0.0,166.75554420825000,10.000000562866600,-5.125253144206620
0.24877828359603900,0.0,0.0,166.01731004199800,10.000003977961200,-5.250973021164460
0.2472444772720340,0.0,0.0,165.28544161205300,10.000003124187500,-5.3771142354167300
0.24509066343307500,0.0,0.0,164.56018480522400,9.999998855319280,-5.503619157242300
0.2423146665096280,0.0,0.0,163.84168988567400,10.00000910060300,-5.630417350315350
0.23891544342041000,0.0,0.0,163.13014809869900,10.000000562866600,-5.757452892462070
0.23489326238632200,0.0,0.0,162.42573702921700,9.99999970909292,-5.8846404063178100
0.23024982213974,0.0,0.0,161.72863426214700,10.00000227041390,-6.01189921027302
0.2249884009361270,0.0,0.0,161.03903104278600,9.99999800154563,-6.139149049604940
0.2191140055656430,0.0,0.0,160.35710495605200,10.000003124187500,-6.266295155438850
0.2126334309577940,0.0,0.0,159.68299260572800,10.000000562866600,-6.393245320220930
0.20555555820465100,0.0,0.0,159.01687157673300,10.00000227041390,-6.519883430735320
0.19789114594459500,0.0,0.0,158.35890579360800,10.000004831734800,-6.64610916857856
0.1896534264087680,0.0,0.0,157.7091908790000,10.000001416640200,-6.771802151666540
0.18085774779319800,0.0,0.0,157.06786343669200,10.000004831734800,-6.896835594612800
0.17152205109596300,0.0,0.0,156.4350600704690,10.000005685508400,-7.021091249767320
0.16166654229164100,0.0,0.0,155.81083542184300,10.000004831734800,-7.144430805799410
0.15131422877311700,0.0,0.0,155.19528511346300,10.00000227041390,-7.266711682510140
0.14049050211906400,0.0,0.0,154.5884637868420,10.000000562866600,-7.387797276116130
0.12922340631485000,0.0,0.0,153.9903851023590,10.000003977961200,-7.507534761134680
0.11754351854324300,0.0,0.0,153.40104906001400,10.00000227041390,-7.625781557366880
0.10548391938209500,0.0,0.0,152.82046932018500,10.000003124187500,-7.74238227800911
0.09307989478111270,0.0,0.0,152.24857758097900,10.000001416640200,-7.857185805125980
0.08036917448043820,0.0,0.0,151.68530554050700,10.000000562866600,-7.970041020782100
0.06739142537117000,0.0,0.0,151.13057123649700,10.000000562866600,-8.08080022213667
0.05418819189071660,0.0,0.0,150.58421074440900,10.000000562866600,-8.18930972993337
0.040802568197250400,0.0,0.0,150.04611478121700,10.000001416640200,-8.29542098755775
0.027278870344162000,0.0,0.0,149.51606478086700,10.000000562866600,-8.399000806320990
0.013662636280059800,0.0,0.0,148.99386949806300,10.000005685508400,-8.499915997534290
0.0,0.0,0.0,148.4792967063730,10.000000562866600,-8.59803337250881
-0.01366269588470460,0.0,0.0,147.97210051898600,10.000000562866600,-8.693228280292220
-0.0272788405418396,0.0,0.0,147.47196674720100,10.000003124187500,-8.785393999178720
-0.0408024787902832,0.0,0.0,146.9786358438290,10.000003124187500,-8.87443234519901
-0.05418819189071660,0.0,0.0,146.49176629941200,10.000003977961200,-8.960243426836470
-0.06739145517349240,0.0,0.0,146.0110166044920,10.000003124187500,-9.042754673331160
-0.08036923408508300,0.0,0.0,145.53607257036600,10.000004831734800,-9.121889245054930
-0.09307992458343510,0.0,0.0,145.06656536681900,10.000003124187500,-9.197583108984300
-0.10548388957977300,0.0,0.0,144.60213982401500,10.00000227041390,-9.269797845305200
-0.11754357814788800,0.0,0.0,144.14244077211700,10.000003124187500,-9.338495887977190
-0.12922334671020500,0.0,0.0,143.68707206015200,10.00000227041390,-9.403649062469940
-0.14049053192138700,0.0,0.0,143.23570583904100,10.00000227041390,-9.465247123499700
-0.15131425857543900,0.0,0.0,142.78797327856800,10.000003124187500,-9.52328238710365
-0.16166651248931900,0.0,0.0,142.34350554851900,10.000003124187500,-9.577761683470960
-0.17152202129364000,0.0,0.0,141.90196113943400,10.000003124187500,-9.628702941848210
-0.18085777759552000,0.0,0.0,141.4630258626120,9.99999800154563,-9.676127506576550
-0.1896533966064450,0.0,0.0,141.02634454821700,10.000000562866600,-9.720069528601830
-0.19789111614227300,0.0,0.0,140.59161666792400,10.000004831734800,-9.760564012643540
-0.2055554986000060,0.0,0.0,140.1585416934100,10.000001416640200,-9.79766303889411
-0.2126334309577940,0.0,0.0,139.72680543597300,9.99999970909292,-9.831407588488560
-0.21911406517028800,0.0,0.0,139.2961893295610,9.99999970909292,-9.861865109544940
-0.22498834133148200,0.0,0.0,138.86639284584800,10.000004831734800,-9.889089389802960
-0.23024982213974,0.0,0.0,138.43718375840500,10.000003977961200,-9.913147877380690
-0.23489320278167700,0.0,0.0,138.0083298407980,9.999998855319280,-9.934101190206990
-0.23891538381576500,0.0,0.0,137.57961252697500,10.000006539282100,-9.952029583004630
-0.2423146367073060,0.0,0.0,137.150840571638,9.99999800154563,-9.96700050389165
-0.24509066343307500,0.0,0.0,136.72182272949100,10.000000562866600,-9.979072863249650
-0.24724453687667800,0.0,0.0,136.2923814156160,10.000001416640200,-9.988341429953360
-0.2487783432006840,0.0,0.0,135.86236636585000,10.000003124187500,-9.994866821931660
-0.24969536066055300,0.0,0.0,135.4316136556540,9.99999970909292,-9.99873100145459
-0.25,0.0,0.0,135.00000034162300,10.000003977961200,-9.99999800154563
-0.25,0.0,0.0,134.58232061349800,9.994235883207080,-10.000000562866600
-0.25,0.0,0.0,134.1933959817790,9.976851344222100,-9.999998855319280
-0.25,0.0,0.0,133.83304886154800,9.947758153452430,-10.00000227041390
-0.25,0.0,0.0,133.5009514037230,9.906893131648250,-9.999998855319280
-0.25,0.0,0.0,133.19659817430800,9.854262255225070,-9.999997147771980
-0.25,0.0,0.0,132.91927883362700,9.789904797770620,-9.99999970909292
-0.25,0.0,0.0,132.66802349481900,9.713972730993940,-10.000000562866600
-0.25,0.0,0.0,132.44167102572400,9.626670106796490,-10.000000562866600
-0.25,0.0,0.0,132.2387870866180,9.528283793123390,-9.99999970909292
-0.25,0.0,0.0,132.05760948869500,9.419211648493810,-9.999998855319280
-0.25,0.0,0.0,131.89613015633700,9.29992666350777,-9.99999970909292
-0.25,0.0,0.0,131.7520404856070,9.171040140095980,-9.999998855319280
-0.25,0.0,0.0,131.62270402348300,9.033252172648380,-9.999998855319280
-0.25,0.0,0.0,131.50523843013700,8.887361893297840,-10.000000562866600
-0.25,0.0,0.0,131.3964471770370,8.734317844565370,-10.000000562866600
-0.25,0.0,0.0,131.29291516959800,8.57510186614414,-9.999997147771980
-0.25,0.0,0.0,131.19106338869500,8.410851184530970,-9.999998855319280
-0.25,0.0,0.0,131.08703960763600,8.24274229981038,-9.999998855319280
-0.25,0.0,0.0,130.97705990162000,8.072029405468730,-10.00000227041390
-0.25,0.0,0.0,130.8571354401730,7.899999992164560,-9.999997147771980
-0.25,0.0,0.0,130.7234549777380,7.727976555275910,-9.99999970909292
-0.25,0.0,0.0,130.57217994800000,7.557258538292380,-9.999998855319280
-0.25,0.0,0.0,130.39969035070100,7.389153068666380,-9.999998855319280
-0.25,0.0,0.0,130.20255743087600,7.224902387053200,-9.99999970909292
-0.25,0.0,0.0,129.9776256411290,7.065692811934320,-10.000001416640200
-0.25,0.0,0.0,129.72203996238700,6.912641933012680,-9.999997147771980
-0.25,0.0,0.0,129.43323224352200,6.766752080548970,-9.99999800154563
-0.25,0.0,0.0,129.1090441447570,6.628968808856410,-9.99999970909292
-0.25,0.0,0.0,128.7476178546360,6.500073747708160,-10.000000562866600
-0.25,0.0,0.0,128.34746439192200,6.380796446684940,-9.999998855319280
-0.25,0.0,0.0,127.90744994521100,6.271724728942180,-9.99999800154563
-0.25,0.0,0.0,127.4267139106690,6.1733422572505000,-9.99999970909292
-0.25,0.0,0.0,126.90473719391800,6.086027680221990,-10.00000227041390
-0.25,0.0,0.0,126.34124658739200,6.01010884693683,-9.99999800154563
-0.25,0.0,0.0,125.73620110995600,5.945757365897910,-9.999997147771980
-0.25,0.0,0.0,125.08979200690600,5.893113682870040,-9.999998855319280
-0.25,0.0,0.0,124.4023881084580,5.852251222386790,-9.999997147771980
-0.25,0.0,0.0,123.67449484860900,5.823140956144190,-10.000001416640200
-0.25,0.0,0.0,122.90679524627800,5.805770931311210,-10.000000562866600
-0.25,0.0,0.0,122.10001330151600,5.799999848349370,-10.000001416640200
-0.24984246492385900,0.00015750527381897000,0.0,121.22053082322900,5.800007532312180,-9.996641817342210
-0.24936819076538100,0.0006317794322967530,0.0,120.23384169572900,5.800006251651710,-9.98647251944171
-0.24857497215271000,0.001425027847290040,0.0,119.13961806993600,5.800006678538540,-9.969348381418840
-0.24746108055114700,0.002538919448852540,0.0,117.93766870055400,5.800006251651710,-9.945131945716560
-0.24602538347244300,0.003974616527557370,0.0,116.62804822909600,5.8000028365571300,-9.913691731193350
-0.24426740407943700,0.0057325661182403600,0.0,115.21108450464100,5.800006251651710,-9.87489284161309
-0.24218738079071000,0.00781261920928955,0.0,113.68735809327100,5.800007959199010,-9.8286191637599
-0.2397862672805790,0.010213762521743800,0.0,112.05772959881900,5.800001555896660,-9.774763122154350
-0.237065851688385,0.012934118509292600,0.0,110.32340796477000,5.800003263443950,-9.713216287543360
-0.23402899503707900,0.015970975160598800,0.0,108.48592315349600,5.8000011290098400,-9.643884744825860
-0.230679452419281,0.019320577383041400,0.0,106.54718761796600,5.800004117217600,-9.566698484562840
-0.2270219326019290,0.022978097200393700,0.0,104.50950996212000,5.800004117217600,-9.481591766183540
-0.2230623960495000,0.0269375741481781,0.0,102.3756154314350,5.799998994575720,-9.38852019345836
-0.21880805492401100,0.031191915273666400,0.0,100.14862542236300,5.800009239859480,-9.28745388430968
-0.21426737308502200,0.035732656717300400,0.0,97.83220774648850,5.800003263443950,-9.178386008548330
-0.20944994688034100,0.0405501127243042,0.0,95.43036489466430,5.799995152594310,-9.061333641647240
-0.2043668031692510,0.0456332266330719,0.0,92.94768675401310,5.799998994575720,-8.93633093455225
-0.19903039932251000,0.050969600677490200,0.0,90.38920034376380,5.800001982783480,-8.80343850519225
-0.1934545636177060,0.0565454363822937,0.0,87.76041079638770,5.80000027523619,-8.662747707347390
-0.18765437602996800,0.06234559416770940,0.0,85.06730135759750,5.799996860141610,-8.514374654233560
-0.1816464066505430,0.0683535635471344,0.0,82.3163402165373,5.799998567688900,-8.358455949634150
-0.175448477268219,0.074551522731781,0.0,79.51439171332300,5.800004117217600,-8.195169178467600
-0.16907960176467900,0.08092039823532100,0.0,76.6687436597989,5.800005397878070,-8.024713269993460
-0.16256004571914700,0.08743998408317570,0.0,73.7870936791597,5.799999421462540,-7.847317889322600
-0.15591096878051800,0.09408903121948240,0.0,70.87743992292340,5.800001982783480,-7.663238314775230
-0.1491546630859380,0.10084536671638500,0.0,67.94807424074250,5.799999421462540,-7.47275543788098
-0.14231407642364500,0.10768592357635500,0.0,65.00756168983610,5.800003690330780,-7.276184301115310
-0.13541287183761600,0.11458715796470600,0.0,62.064556119882700,5.800003690330780,-7.073850619124260
-0.12847501039505000,0.12152498960495000,0.0,59.12788896547900,5.8000011290098400,-6.866116391933840
-0.12152493000030500,0.12847504019737200,0.0,56.20641556688410,5.800005824764890,-6.653348742211950
-0.11458718776702900,0.1354128122329710,0.0,53.3089468681271,5.80000838608583,-6.435944674704090
-0.10768592357635500,0.14231407642364500,0.0,50.44423234153490,5.800001555896660,-6.214299059721650
-0.1008453369140630,0.1491546630859380,0.0,47.62081313866470,5.800004117217600,-5.988832807672240
-0.09408903121948240,0.15591096878051800,0.0,44.847083562006300,5.800002409670310,-5.7599608525479300
-0.08743995428085330,0.16256004571914700,0.0,42.13104517817230,5.800000702123010,-5.528110081171850
-0.08092039823532100,0.16907960176467900,0.0,39.48046049715470,5.800001982783480,-5.293709514801230
-0.074551522731781,0.175448477268219,0.0,36.902675387405600,5.800003690330780,-5.057173233654520
-0.06835353374481200,0.1816464364528660,0.0,34.40456784941930,5.8000045441044200,-4.818925563233900
-0.06234562397003170,0.18765440583229100,0.0,31.99263680819100,5.8000011290098400,-4.579362227624400
-0.0565454363822937,0.1934545636177060,0.0,29.672827943393300,5.800006678538540,-4.338895599497170
-0.050969600677490200,0.19903039932251000,0.0,27.450637849760700,5.8000011290098400,-4.097894082180560
-0.04563319683074950,0.2043667733669280,0.0,25.33099450877940,5.800003263443950,-3.8567363242866900
-0.0405501127243042,0.2094498872756960,0.0,23.31836144907190,5.8000028365571300,-3.615771946123700
-0.0357326865196228,0.2142673134803770,0.0,21.41665749167470,5.80000027523619,-3.375335200074090
-0.03119194507598880,0.21880808472633400,0.0,19.629306268909000,5.80000710542536,-3.1357336580939200
-0.02693760395050050,0.2230623960495000,0.0,17.95923963947630,5.799999848349370,-2.8972736114787900
-0.02297806739807130,0.22702190279960600,0.0,16.408913056383000,5.800003690330780,-2.6602248527009200
-0.01932060718536380,0.23067939281463600,0.0,14.980358500907400,5.800004117217600,-2.424845007958050
-0.015971004962921100,0.23402899503707900,0.0,13.675119595801700,5.8000045441044200,-2.19136907844633
-0.012934088706970200,0.2370658814907070,0.0,12.49437284115050,5.800004970991240,-1.9600201125308300
-0.010213732719421400,0.23978623747825600,0.0,11.438956642674500,5.8000011290098400,-1.7309754816865700
-0.00781261920928955,0.24218741059303300,0.0,10.509273127761100,5.8000011290098400,-1.50443336812117
-0.005732536315917970,0.24426743388176000,0.0,9.705495612460310,5.80000027523619,-1.2805523602894300
-0.003974556922912600,0.24602541327476500,0.0,9.027394431661450,5.800009666746300,-1.059469595583290
-0.002538919448852540,0.24746108055114700,0.0,8.47460502401751,5.800003690330780,-0.8413104186461720
-0.001425027847290040,0.24857494235038800,0.0,8.046438394195980,5.8000028365571300,-0.6261947313145310
-0.0006318092346191410,0.24936822056770300,0.0,7.7420143015675800,5.800002409670310,-0.4142173558239520
-0.0001575946807861330,0.24984243512153600,0.0,7.56030309511491,5.8000028365571300,-0.20545881370144800
0.0,0.25,0.0,7.500018137953090,5.800006251651710,-5.56838346134251E-08
0.0,0.25,0.0,7.500020699274020,5.800003263443950,0.21562053436084000
0.0,0.25,0.0,7.500016430405790,5.80000838608583,0.45464834045072500
0.0,0.25,0.0,7.500018991726730,5.800002409670310,0.716298159958516
0.0,0.25,0.0,7.500018137953090,5.800007532312180,0.9991673495051260
0.0,0.25,0.0,7.5000258219159000,5.8000011290098400,1.3011222220268700
0.0,0.25,0.0,7.500024968142260,5.800003263443950,1.6191692336765700
0.0,0.25,0.0,7.5000147228585,5.800002409670310,1.9494412167235400
0.0,0.25,0.0,7.5000147228585,5.800004970991240,2.287164402546460
0.0,0.25,0.0,7.500013869084850,5.800000702123010,2.6268211722347300
0.0,0.25,0.0,7.500017284179440,5.80000710542536,2.962327321341750
0.0,0.25,0.0,7.500018137953090,5.8000045441044200,3.2873956607365200
0.0,0.25,0.0,7.50002155304767,5.800000702123010,3.595858529598530
0.0,0.25,0.0,7.500024968142260,5.800004970991240,3.8820477246902900
0.0,0.25,0.0,7.500018991726730,5.800003690330780,4.141123630098040
0.0,0.25,0.0,7.500018991726730,5.800003690330780,4.3692365804508400
0.0,0.25,0.0,7.500017284179440,5.800003690330780,4.563635290173620
0.0,0.25,0.0,7.500019845500380,5.799999848349370,4.722621176597190
0.0,0.25,0.0,7.500013869084850,5.8000011290098400,4.8454275509871900
0.0,0.25,0.0,7.500012161537560,5.800006678538540,4.932084722308090
0.0,0.25,0.0,7.500016430405790,5.799999848349370,4.983245827399240